*** Life<Cell> 4x14 ***

Generation = 0, Population = 24.
--0-0-0--0-000
0-0---0--0-0-0
-0--0-0-0--00-
--0---0--000--

Generation = 77, Population = 0.
..............
..............
.............-
..............

*** Life<Cell> 6x14 ***

Generation = 0, Population = 14.
-----------0-0
----0--0--0---
----0000------
------------0-
------0--0----
----------0--0

Generation = 193, Population = 0.
..............
..........-...
..............
..............
..-...........
.....-........

*** Life<Cell> 1x175 ***

Generation = 0, Population = 85.
0000-00-0-0----0-000-0-----00---00--0---000-000-00-0000-00-0-0-0-00000-0-0-00--0-----------00--00-0-00---0-----0---0---00----0--00000--00-0-00--0-0---00-00000-00-000--0---0-0-

Generation = 179, Population = 6.
.1-1-.........-.-.-.-.-0...-.............-------..1-..-1......-.-.---.........-..-------.-....-..---...-..-.---1-.---...-.-.-....---.---.---..-..--........-.....---.-.-.......

*** Life<Cell> 10x19 ***

Generation = 0, Population = 80.
00-0---0-0-0---00--
----0-000----------
---00-----000-000--
-0-0-0-0----0--0--0
---0--0--00000--00-
00-0----0---00--000
00-000----0-0---0-0
0--00-000--0-------
-0--0-0000-00-0--00
0-0--0-0---0---0-00

Generation = 86, Population = 18.
...................
...............*...
.............**.*..
.................*.
.-.........**....**
...........**....*.
...........**.*.*..
.............*.*...
...................
...............-...

*** Life<Cell> 7x24 ***

Generation = 0, Population = 97.
-0---00--0---0-----000-0
00-0--0-000-0-0-0000---0
-00-00-0-0--00--0-0-----
0-0-0-0-00--000000-00000
--00000000-000------000-
000000000000000-----0-0-
--00--0000-00-00-0000-00

Generation = 173, Population = 4.
........................
........................
................*.......
...............*.*......
................*.......
........................
........................

*** Life<Cell> 3x11 ***

Generation = 0, Population = 1.
-----------
-----------
-------0---

Generation = 11, Population = 6.
------0-0--
-----0---0-
----0-----0

*** Life<Cell> 6x121 ***

Generation = 0, Population = 162.
--00-0--000--00--0----0--0-000-0-----0-00--0-0-0--00-0----------0--00-0--00--------------0----0----00--------------0----0
-0--------------0----0---00----00-----0-0-----------0--0----------0-0-----------0----0-------------0--0-0-00--0---0------
---0--------00---0-0----0---000-----0------------000--0-00-------------0------0---00----0------------------00-0----0-----
-----0-0---0--------0---0---0--0---0------0--------0------0--0-000000------0------------0------0-0------00------0----0---
-0--0--------00--000--00-0----00----------00--0000--000-0------0-0-------------0-0---0---------0--0-------0--------------
------------0---0--0-----00--0--0-----------0---------0---0----0-----00------0-0--0-----00--0--------0--------0---00-----

Generation = 90, Population = 27.
..**...........-................**...................................................................***...........-.....
..**....................-......*..*...-................................................-...........*.***.................
..........................-.....**........................**.......................................*.....................
................................................**........**.............................................................
........-..................-.-......-...........*.*......................................................................
.............-............................-......*.......................................................................

*** Life<Cell> 3x179 ***

Generation = 0, Population = 168.
------0-------00-00-0-0----0-0-0-0----0-0000-0-0----0-0-0-------0-------000-----0----0-0000-00--00-00----0-0-0---0-000----0-00-----0----0-----0---0000----0--0---0-0---00-0-----0--
----0-0---0----0----0--0-----0--00-----0-0---0----0----0----000------0---00-0----0---0---000-0---0-00----0-----00---0---0----00--00-0-----------0---0---0-000-----00--0-000--0-0-0-
---0---0-0-0-0---0-0--00-0----0------0-0--0--0---------0-0------00---000-000--00-----0-------0--0---0--------0--------00---00--------00-0-0---0--0--0-----0-00-0---000-0-----------

Generation = 169, Population = 46.
**.............-......-....**...-1..-...........-....-..........-.-....-..................****..............-.0-........**.-.....-..-..-....**.-.-..........................*..-.**
**..**...........-.........*.*...........**......................-.--...........-.-......*....*...................-..-..**...---............**.......-.....................*.*.-.-*
....**......................*.......-....**..-...........-...............................*****.......-.......-..-............1.....-...................-....................*...-..

*** Life<Cell> 9x186 ***

Generation = 0, Population = 193.
---------0----0-------0--------------0--00---------0------------------------0-0--0-------0---------0---0----------00---------0------------0---------0--------0----------------0-----------
--00-------------0---0---0-----0-----0------0-------0---0-------------0---------0------0-------------0---------------------------------------------------000-----0-----0-------0--0----0--
-----0--------------0-------0---0-------0---0--0-----------0-----00----0------------------0-0---------------------0----0-------------------0-------------0-------0----------------------0-
--------0-0----------0-------0---0-------------------0---0-----------0---0---------0-------------------0--------0-------0----0-----------0-0----0--------0-------0----------0-0-0-00--0---
--0----------0----0------------------------------0------0----------------------------------0-0---0---------------------0---------------00-----0-----00--------------0---------------------
0--------------0-0--------------0-------0------0-------------------0------------0--------0--0----------------------0---------------0-----------------------------0-------000--0-----------
-0--0---0--------------0-0-----0--0-----0--------------0---0---------0---0----0-------------00---------------0-----------0---0----0----0----0-------0---------0----------------------0----
-----0-0---------------0------0-----------0---------------00----------------0-----00---0----0------------0------------0-00------------00------0----0-----------------0----------0---0-0---
-------00----0-------0--0-------------------0------------------00---0--0-------0----0----0---------0-----0------0---0--0-----------0---------0-----0-----0-----0---0------0--0---------0--

Generation = 62, Population = 143.
.................................................................*.*..-.......................-...-.......**................................................-..........**.................
..................***.........**.1......**.**..........*.........*.*.....**.............**................*.***.......................................................*..*................
-...................**.*.*....**...-....*...*..........*.................**............*..*.................**.*.....................................................*..*..............**.
.......................*.*....***......****.*..........*................................**...**.............**.**.....................................................................*..*
................*.**....*..............*..*...........................-......................**..............*.*.........................................*-..........*..*..............**.
.....*.*........*......*...............*..*........***........................................................*..........................................**.........*.*..*................
.....*..*....*...***..*..........-..**.**.*...............***................................................................................**............-........*.****................
.....*.*....**....****..............*.**.....................................................................................................**.....................-...*.................
-...............................-....**...................*.*1...........................-............................................................................**..................

*** Life<Cell> 5x57 ***

Generation = 0, Population = 113.
0----000--0----0-00-0-00--0-----0-0--00--0-00-----000----
--000-------00---0---0----0-----0000-00-0-00-0--0--0-0-0-
-0-0---000--------0---00-00-00-----------00-0-0000--0-00-
-0-00---0--0--00--0--00-000--0--0---0-0--0-0---000----00-
--0--00-0-----00--000--0---0000--00-0--0------0---000--0-

Generation = 90, Population = 22.
...................-..................................-..
....................**.....**.........**...**...........-
...................*.*....*..*........**..*..*...........
..-.................*.....*.*..............**............
...........................*.............................

*** Life<Cell> 1x7 ***

Generation = 0, Population = 2.
-----00

Generation = 27, Population = 0.
--...-.

*** Life<Cell> 5x45 ***

Generation = 0, Population = 119.
-00--0-0-00-----0-00-00----00000-0---00000---
--00------0---00000--0-00-00-00-00000--000-0-
---0--0--00-00-0--00000-0-00-00--00--000-0--0
00-00-000-0--00-0-0---0-0-00000--0----0000---
0-0-0-0-00-0-0-0----00-000--0--00-0000000--0-

Generation = 72, Population = 18.
...........*....................*............
..........**....................*....**......
.........**.......................*.*..*.....
..........**.....................*...**......
.-.........*.................................

*** Life<Cell> 9x118 ***

Generation = 0, Population = 178.
---0----00--00--0-------------0-0------00--------------------------0----------0---0--0---00-0-------0-----------------
----------------0----0--------0---0----------------0---0-00----0---0-0-0----------0----0--------0----0-----------0--0-
---0-0-0--0--0---------0---0-----0-------------------0----0----------------0-0---------0------------0-0-------------0-
---0--0----0-------00------0-----0--------0---------------------------0--00-------0-0---0--00------0-------0---------0
-0--0-------0-0-----0--------0--------------------0-----------00-0-----0-------00-0---00-----0-0-----0--0-0--0-------0
0--------------------0-----0----00-----------0---0---0-----0----0--0----------0-0-0----0-----000---00---------0---00--
------------0-0-------00---0-----0----------------------0-------------0-----0-----0-00-0--0---0-0-------------0-------
0----0-0-0---------------0--0------0--------0-0-----------------0---0--000000--0-000----0--0-0-----0-0----0----0---0--
-0------0------000------------00-----0--------0-------0----------------0-----------0------------------0-0---0---------

Generation = 87, Population = 86.
.................................................**.............-................-.......................-............
.............................................*..*.*....*......**.............................................**.......
......**.......................................*..*....*......**..............................***...........*..*......
.....*.*.**-.............******................*.......*...........-........................*....*...........**.......
....**....*.............*..**..*...........**...............................................*.....*......-............
.....*.*....*.-..........******..................*......................**.......................*...............-....
......*....*.....................................*.....................*..*....**..........**.***.....................
.......***-.............................................................**.....**..........**..*......................
........*.............................................-......................................*.............-..........

*** Life<Cell> 6x39 ***

Generation = 0, Population = 54.
0--0----00--------00---------------0---
---0---0------0-0---0-00--0------0-----
0--0----0----0----0--0---------------00
--0-00------------0--0-------0-0----0-0
---00---0--0-----------0-0---0----00000
000--00-----0----0------0-------------0

Generation = 72, Population = 32.
.........*...............***..........-
...*.*..*.*............*.....*....-....
...*..**..........**...*...............
..*...*...........**...*...............
...*.....*.....................*.......
...*...**................***.*.*.......

*** Life<Cell> 10x94 ***

Generation = 0, Population = 178.
-0-----00----00-0------0-00---------00---0----00--0-0-------0------------00-----0---0---------
---------------0---0---0-----0--000-0--------0----0--00-------0--0------------00-------0-0--0-
-00------0------0--000-0----------0---0--------------000----0-------------------------0-0--00-
0---0-0---------0-----0-0--------00----------0--0-0-----0-----0--0-0--00-----0----0-----0--0--
-00-----------------0---------000-------------0-0-00------00---0---0--------------0------0----
0-----0----------------00--------------0-0------0------0--------0-----------------------0----0
0------------------00--0-------------------0--------0----0----0-0---0----0-0---------------0--
--0--00------------0---0-----------------0000--0-0-----0-0---------0----------0--00-----------
00-0-00-------0--0---0----0--------00-0-0----0------------0-00--0----------0----0-0---0--00--0
--0---0-0---------0-------0---00------------------0------00-0----00-----------0---0--0--0-----

Generation = 98, Population = 55.
..............***..............................................**.............................
.-..*.........*.......**.......................................**.............................
....*.....-....*.**.*..**.....................................................................
....*..-...-.....**.**.*......................................................................
.....................**.........................................-.............-...............
.**...........................................................................................
*..*...-.........*.*.**...........................................*...........................
*.*..-...........******..........................................*.*..........................
.*................*****......................................-...*..*.........................
.......-.....................................-...-.........-......**..........................

*** Life<Cell> 6x87 ***

Generation = 0, Population = 40.
---------0--------0--------------------------0--0-0----0------------------------------0
---------------------------------------0----------------------------0------------------
-00---------0-------------------------------0----0----------------------0-------------0
---------0---------------------------------00------------------------------0----0----0-
---0-----0--0-00------------------------------0------------0--0----0--0--------0-------
-------------------0------0------0---------0-------0--------------------0----------0---

Generation = 73, Population = 54.
....**..-.........*.......................................................***...***..1.
....**...........*.*...............................................**....*.*.*.*.*.*.*.
..................*..................................-.............**...***.**.**.**.*.
..........................**.................-..........................*..*.*.*.*..*..
-..........-............-.**...............................................**...**.....
..........-.-...-........-.........................-................-......**...**.....

*** Life<Cell> 7x41 ***

Generation = 0, Population = 140.
-00--00--0-0-0---00-00000--00-000--00--0-
000-0---0----0--0--000--0000-0-0--0-00-00
-00--0-00----0-0-000---00-----00-00---00-
0-0-00-00000------0-0-00-00-0--0-0-000--0
-0----0-00000--0--0-------0--00000---0---
-00000--0-0--0-0-000000-----0---00--0---0
-----0-0-00-0--0-0---00--000-0000--000-00

Generation = 188, Population = 11.
...................................*.....
.............-.....................*.....
..........-........................*.....
.........................................
........................................-
......**....**...........................
......**....**...........................

*** Life<Cell> 4x183 ***

Generation = 0, Population = 115.
-----------------0--------------0-----0--00---------0--------0-----------0----0-----0---0--00--------00---------------0-0---0----0------------------------0--0--0-----------------0-0--
-----0-0-----0---0-0---0------0----0-0-0----------0---0--0-------------------00-------0----------0----0--0------0-0-----------------0----00------0-0-----------0-0---------------0---0-
--------0--0-----0--------0-0-0----0-----------0------0------0--------------0000--0---------0----0-------0----0--------0---0----0-----0----------0-0-0--------0--0-----------------00-0
----0--0-0---------------000-----0-----0----0------------0--0-0------------------00-----0---00---0----0---0------0--------------00-0----0-0---------0-------------0-----------0------0-

Generation = 132, Population = 43.
**....**..-....**.............-1.-.................................-.....-.......-....-..........................-.-..........**.-.....-...-....-...**...-......-...-......-...........
*.....**.......**....................................**.................................-1*........................1..........**...................*..*..................-.............
*.-............................-.....................**............-...................-.*.*..................-.............................-......*..*.................-............**
**........-..................-.........................................-....-.............**............-...........-1.-...-.....-.-...............-**.............-.................**

*** Life<Cell> 1x133 ***

Generation = 0, Population = 69.
----000-00--000---00----00000--0000---0---0--000-0-0000-0--0000000--0----0----0-0-00-----00--0--00000-00-00000-000---000-0--0---0--00

Generation = 88, Population = 6.
--...---.---.-..-1.-.---..-1....-0.....-..-.-...---...---.-...-.......-......-0.-..-..-.....---0...-........-......-..--.-....-0.....

*** Life<Cell> 2x173 ***

Generation = 0, Population = 149.
0000--0--00-0-0-00--000--0--00-0-0-000-0--0-0--------0-00---00-----00-00-----0--00--00-------0--0--0-0000000---0--0---000--0--00-0-00-0000000---0-0--0000-0--0-0--0--0-----00
---00-0----0---0-0---000-00-------0--0-----0--0--0--0--0000-00--0--00-00000-00---0----0----0-----00--000-0000---000-----------0-00-00--0000-0--0-0--0-00----0-0-0--0----0---0

Generation = 40, Population = 45.
.1-..1.......-............1-...1-..........*.-*-..-.-......**....-....--...-...-.--......1..**....-1-...-...**......**.-.-.-....**..--....**....-.........-.....**..-.-......
0.0..-.-......-..-............-.......-.-..*****....-......*-1.....1-..........--.-.-1...-..-*......0.......**......**..........**.---....**...--...............**...........

*** Life<Cell> 7x118 ***

Generation = 0, Population = 181.
--------0----0000--00---000--------------------0-0-0------0---0---00----00----00--0---------0--0--0------0------------
---------0-0---0-------00-0----00---0--00-------00-------------0-00-----0--0---0--0------00----000-----0-00-----0-----
--0-0-0--00-00-------0----0-0---------------0----0-0--0-----0-0-----0------0--0-0---00---00----------------0---------0
--0--------0-0-0----0-0-------------0------0---0-------0---------0----0-0--0-0-0---0--------0-0--0---0-0--0---0------0
0-----0---------------0-0-------0---00-----000-----0-0-----0-----0--0--0---0------0---0-------------0--------0-0------
0----00----0--------0-0-00---0-0---0--000-------0----0-0-----------------0------0------0--0--00--------00-------------
-0-0-00--------0-----0-0-0-0--0---------0-0---0--0--------0------0----0---0----0----0-------0-0---0---0-----------0000

Generation = 41, Population = 98.
.........-.............**......................-1....................................**........................-..-...
.............*.......................................................................**...............................
...........**.*......**...*.....*......**...................***..........*...*........................................
...........**.*.....**....*....**.**...**..........***....**.*.*........**...**...............**......................
........-............*..***.....*.*.............-..........*.*.**......*.......*............*.*.****-......-..........
......................*.***..................................***........**...**...........**.**....*..........**......
...................................................*1*....***.......-....*...*0-............*...***.........-.**......
